%YAML 1.1
%TAG !u! tag:unity3d.com,2011:
--- !u!114 &11400000
MonoBehaviour:
  m_ObjectHideFlags: 0
  m_CorrespondingSourceObject: {fileID: 0}
  m_PrefabInstance: {fileID: 0}
  m_PrefabAsset: {fileID: 0}
  m_GameObject: {fileID: 0}
  m_Enabled: 1
  m_EditorHideFlags: 0
  m_Script: {fileID: 11500000, guid: 0d5fc9505e351bc469bd8a4863f6c1be, type: 3}
  m_Name: 97CE3E0C-E2C5-4634-B7BA-7D04D9441876
  m_EditorClassIdentifier: 
  objectName: SurfaceMaterial
  id: 171170469
  guid: 97CE3E0C-E2C5-4634-B7BA-7D04D9441876
