%YAML 1.1
%TAG !u! tag:unity3d.com,2011:
--- !u!114 &11400000
MonoBehaviour:
  m_ObjectHideFlags: 0
  m_CorrespondingSourceObject: {fileID: 0}
  m_PrefabInstance: {fileID: 0}
  m_PrefabAsset: {fileID: 0}
  m_GameObject: {fileID: 0}
  m_Enabled: 1
  m_EditorHideFlags: 0
  m_Script: {fileID: 11500000, guid: 70dd68916dc2920469e65e5b1f6dbb88, type: 3}
  m_Name: 0A7475D8-7D17-4D14-94C5-8C1D778253FF
  m_EditorClassIdentifier: 
  objectName: Play_Footstep
  id: 1602358412
  guid: 0A7475D8-7D17-4D14-94C5-8C1D778253FF
